%YAML 1.1
%TAG !u! tag:unity3d.com,2011:
--- !u!78 &1
TagManager:
  serializedVersion: 2
  tags:
  - Zombie
  - Bullet
  layers:
  - Default
  - TransparentFX
  - Ignore Raycast
  - 
  - Water
  - UI
  - 
  - 
  - Decoration
  - Zombie
  - Player
  - Bullet
  - Dead
  - NoCollision
  - 
  - 
  - 
  - 
  - 
  - 
  - 
  - 
  - 
  - 
  - 
  - 
  - 
  - 
  - 
  - 
  - 
  - 
  m_SortingLayers:
  - name: Ground
    uniqueID: 3426497511
    locked: 0
  - name: Ground Decoration
    uniqueID: 4262669871
    locked: 0
  - name: InteractionIndicator
    uniqueID: 1783855471
    locked: 0
  - name: Bed
    uniqueID: 3085408741
    locked: 0
  - name: Patient
    uniqueID: 3546343755
    locked: 0
  - name: BedSecond
    uniqueID: 4201005097
    locked: 0
  - name: Default
    uniqueID: 0
    locked: 0
  - name: Player
    uniqueID: 2605826041
    locked: 0
  - name: Lighting
    uniqueID: 4129458237
    locked: 0
  - name: UI
    uniqueID: 1055151067
    locked: 0
